module gitlab.com/shrmpy/gmi

go 1.18

require (
	github.com/gdamore/tcell/v2 v2.5.1
	github.com/hajimehoshi/ebiten/v2 v2.3.2
	github.com/tinne26/etxt v0.0.1
	golang.org/x/crypto v0.0.0-20210921155107-089bfa567519
	golang.org/x/sync v0.0.0-20210220032951-036812b2e83c
)

require (
	github.com/gdamore/encoding v1.0.0 // indirect
	github.com/go-gl/glfw/v3.3/glfw v0.0.0-20220320163800-277f93cfa958 // indirect
	github.com/gofrs/flock v0.8.1 // indirect
	github.com/jezek/xgb v1.0.0 // indirect
	github.com/lucasb-eyer/go-colorful v1.2.0 // indirect
	github.com/mattn/go-runewidth v0.0.13 // indirect
	github.com/rivo/uniseg v0.2.0 // indirect
	golang.org/x/exp v0.0.0-20190731235908-ec7cb31e5a56 // indirect
	golang.org/x/image v0.0.0-20220321031419-a8550c1d254a // indirect
	golang.org/x/mobile v0.0.0-20220325161704-447654d348e3 // indirect
	golang.org/x/sys v0.0.0-20220408201424-a24fb2fb8a0f // indirect
	golang.org/x/term v0.0.0-20201210144234-2321bbc49cbf // indirect
	golang.org/x/text v0.3.7 // indirect
)
